<svg width="32" height="30" viewBox="0 0 32 30" fill="none" xmlns="http://www.w3.org/2000/svg">
<path d="M25.1429 8.78577L12.5714 20.1786L6.85714 15.0001" stroke="#37833B" stroke-width="2" stroke-linecap="round" stroke-linejoin="round"/>
</svg>
