<svg width="19" height="19" viewBox="0 0 19 19" fill="none" xmlns="http://www.w3.org/2000/svg">
<path d="M11.0834 1.58331H4.75008C4.33016 1.58331 3.92743 1.75013 3.6305 2.04706C3.33356 2.34399 3.16675 2.74672 3.16675 3.16665V15.8333C3.16675 16.2532 3.33356 16.656 3.6305 16.9529C3.92743 17.2498 4.33016 17.4166 4.75008 17.4166H14.2501C14.67 17.4166 15.0727 17.2498 15.3697 16.9529C15.6666 16.656 15.8334 16.2532 15.8334 15.8333V6.33331L11.0834 1.58331Z" fill="#406DB8" stroke="#406DB8" stroke-linecap="round" stroke-linejoin="round"/>
<path d="M11.0833 1.58331V6.33331H15.8333" stroke="white" stroke-linecap="round" stroke-linejoin="round"/>
<path d="M9.5 14.25V9.5" stroke="white" stroke-linecap="round" stroke-linejoin="round"/>
<path d="M7.125 11.875H11.875" stroke="white" stroke-linecap="round" stroke-linejoin="round"/>
</svg>
