<svg width="11" height="11" viewBox="0 0 11 11" fill="none" xmlns="http://www.w3.org/2000/svg">
<path d="M9.03559 5.49999C8.81861 5.49999 8.64273 5.67588 8.64273 5.89285V9.82135C8.64273 10.0383 8.46684 10.2142 8.24987 10.2142H1.17856C0.961582 10.2142 0.785696 10.0383 0.785696 9.82135V1.96432C0.785696 1.74735 0.961582 1.57146 1.17856 1.57146H5.89278C6.10975 1.57146 6.28564 1.39558 6.28564 1.1786C6.28564 0.961629 6.10975 0.785767 5.89278 0.785767H1.17856C0.527657 0.785767 0 1.31342 0 1.96432V9.82135C0 10.4723 0.527657 10.9999 1.17856 10.9999H8.24989C8.90079 10.9999 9.42845 10.4723 9.42845 9.82135V5.89283C9.42845 5.67588 9.25256 5.49999 9.03559 5.49999Z" fill="#B9B9BE"/>
<path d="M10.5596 0.440659C10.2776 0.158543 9.89496 8.22483e-05 9.49602 0.000128286C9.09686 -0.00102265 8.71387 0.157714 8.43258 0.440913L3.25791 5.61514C3.21498 5.65839 3.1826 5.71097 3.16324 5.76874L2.37754 8.12586C2.30897 8.33171 2.42026 8.55416 2.62612 8.62271C2.66606 8.63602 2.70788 8.64281 2.74996 8.64285C2.79213 8.64279 2.83405 8.63602 2.8741 8.62283L5.23121 7.83713C5.28911 7.8178 5.3417 7.78525 5.38482 7.74207L10.5595 2.56742C11.1468 1.98017 11.1469 1.02798 10.5596 0.440659ZM10.004 2.0123L4.89689 7.11939L3.37105 7.62891L3.879 6.10502L8.98805 0.997964C9.26892 0.717643 9.72389 0.718103 10.0042 0.998977C10.1381 1.13315 10.2136 1.31479 10.2141 1.50435C10.2146 1.69492 10.139 1.87778 10.004 2.0123Z" fill="#B9B9BE"/>
</svg>
