<svg width="6" height="7" viewBox="0 0 6 7" fill="none" xmlns="http://www.w3.org/2000/svg">
<g clip-path="url(#clip0)">
<path d="M5.30366 2.55885L5.09311 2.34111L3.01464 4.40221L0.979296 2.29743L0.764275 2.51066L3.01017 4.83318L5.30366 2.55885Z" fill="white"/>
</g>
<defs>
<clipPath id="clip0">
<rect width="5.16528" height="5.10073" fill="white" transform="matrix(0.0103527 -0.999946 0.999944 0.0106164 0.446289 6.12317)"/>
</clipPath>
</defs>
</svg>
