<svg width="11" height="11" viewBox="0 0 11 11" fill="none" xmlns="http://www.w3.org/2000/svg">
<g clip-path="url(#clip0)">
<path d="M9.96608 2.4587L9.7232 1.73067C9.63072 1.45338 9.37215 1.26707 9.07993 1.26707H7.03866V0.602486C7.03866 0.270317 6.7686 0 6.43651 0H4.5672C4.2352 0 3.96505 0.270317 3.96505 0.602486V1.26707H1.92387C1.63157 1.26707 1.373 1.45338 1.28051 1.73067L1.03764 2.4587C0.982335 2.62445 1.01036 2.80799 1.1125 2.94974C1.21463 3.09148 1.37988 3.17616 1.55461 3.17616H1.80848L2.36724 10.0857C2.40878 10.5983 2.84384 11 3.35787 11H7.75923C8.27317 11 8.70832 10.5983 8.74978 10.0856L9.30854 3.17616H9.44911C9.62384 3.17616 9.78908 3.09148 9.89122 2.94982C9.99335 2.80807 10.0214 2.62445 9.96608 2.4587ZM4.60959 0.644531H6.39413V1.26707H4.60959V0.644531ZM8.10734 10.0336C8.09274 10.2141 7.93983 10.3555 7.75923 10.3555H3.35787C3.17727 10.3555 3.02436 10.2141 3.00975 10.0336L2.45511 3.17616H8.66191L8.10734 10.0336ZM1.69283 2.53163L1.89198 1.9346C1.89651 1.92084 1.90935 1.91161 1.92387 1.91161H9.07993C9.09445 1.91161 9.1072 1.92084 9.11182 1.9346L9.31097 2.53163H1.69283Z" fill="#B9B9BE"/>
<path d="M7.07943 10.0108C7.08514 10.0111 7.09076 10.0112 7.09647 10.0112C7.26675 10.0112 7.40909 9.87779 7.41798 9.70575L7.72061 3.89641C7.72985 3.71866 7.59322 3.56701 7.41555 3.55778C7.23738 3.54829 7.08623 3.68509 7.07691 3.86284L6.77437 9.67218C6.76514 9.84993 6.90168 10.0016 7.07943 10.0108Z" fill="#B9B9BE"/>
<path d="M3.60009 9.70651C3.60949 9.8783 3.75165 10.0112 3.9216 10.0112C3.92747 10.0112 3.93352 10.0111 3.93947 10.0107C4.11714 10.0011 4.25334 9.84918 4.24369 9.67143L3.92672 3.86209C3.91707 3.68434 3.76517 3.54813 3.58742 3.55786C3.40975 3.56752 3.27355 3.71942 3.2832 3.89717L3.60009 9.70651Z" fill="#B9B9BE"/>
<path d="M5.50537 10.0112C5.68337 10.0112 5.82764 9.86692 5.82764 9.68892V3.87958C5.82764 3.70158 5.68337 3.55731 5.50537 3.55731C5.32737 3.55731 5.18311 3.70158 5.18311 3.87958V9.68892C5.18311 9.86692 5.32737 10.0112 5.50537 10.0112Z" fill="#B9B9BE"/>
</g>
<defs>
<clipPath id="clip0">
<rect width="11" height="11" fill="white"/>
</clipPath>
</defs>
</svg>
