<svg width="20" height="19" viewBox="0 0 20 19" fill="none" xmlns="http://www.w3.org/2000/svg">
<g clip-path="url(#clip0)">
<path d="M9.74378 17.48C14.0959 17.48 17.624 13.9073 17.624 9.50002C17.624 5.09279 14.0959 1.52002 9.74378 1.52002C5.39163 1.52002 1.86353 5.09279 1.86353 9.50002C1.86353 13.9073 5.39163 17.48 9.74378 17.48Z" stroke="white" stroke-miterlimit="10" stroke-linecap="round"/>
<path d="M11.2061 13.007C11.1626 12.4795 11.1793 12.1114 11.1793 11.6294C11.3967 11.5041 11.7863 10.705 11.8522 10.03C12.0231 10.0146 12.2927 9.83133 12.3716 9.10785C12.4142 8.71944 12.245 8.50086 12.142 8.43215C12.4202 7.51299 12.998 4.66947 11.0732 4.37563C10.8752 3.99343 10.3679 3.80005 9.70873 3.80005C7.07145 3.85339 6.75333 5.98783 7.33149 8.43215C7.22872 8.50086 7.05954 8.71944 7.10183 9.10785C7.18106 9.83133 7.45033 10.0146 7.62131 10.03C7.68684 10.7047 8.09193 11.5041 8.30996 11.6294C8.30996 12.1114 8.32635 12.4795 8.28286 13.007C7.90725 14.1162 5.97829 14.203 4.86548 15.2726C6.02893 16.5596 7.9144 17.48 9.90413 17.48C11.8939 17.48 14.2327 15.7543 14.622 15.2834C13.516 14.2039 11.5826 14.1202 11.2061 13.007Z" fill="white"/>
</g>
<defs>
<clipPath id="clip0">
<rect width="18.7625" height="19" fill="white" transform="translate(0.362549)"/>
</clipPath>
</defs>
</svg>
